<svg xmlns="http://www.w3.org/2000/svg" xmlns:xlink="http://www.w3.org/1999/xlink" width="100" height="100" viewBox="0 0 100 100">
  <metadata><?xpacket begin="﻿" id="W5M0MpCehiHzreSzNTczkc9d"?>
<x:xmpmeta xmlns:x="adobe:ns:meta/" x:xmptk="Adobe XMP Core 5.6-c138 79.159824, 2016/09/14-01:09:01        ">
   <rdf:RDF xmlns:rdf="http://www.w3.org/1999/02/22-rdf-syntax-ns#">
      <rdf:Description rdf:about=""/>
   </rdf:RDF>
</x:xmpmeta>
                                                                                                    
                                                                                                    
                                                                                                    
                                                                                                    
                                                                                                    
                                                                                                    
                                                                                                    
                                                                                                    
                                                                                                    
                                                                                                    
                                                                                                    
                                                                                                    
                                                                                                    
                                                                                                    
                                                                                                    
                                                                                                    
                                                                                                    
                                                                                                    
                                                                                                    
                                                                                                    
                           
<?xpacket end="w"?></metadata>
<defs>
    <style>
      .cls-1 {
        fill-rule: evenodd;
        fill: url(#linear-gradient);
      }
    </style>
    <linearGradient id="linear-gradient" x1="50" y1="100" x2="50" gradientUnits="userSpaceOnUse">
      <stop offset="0" stop-color="#51c660"/>
      <stop offset="1" stop-color="#8ecd53"/>
    </linearGradient>
  </defs>
  <path id="Calendar-icon" class="cls-1" d="M0,10L4,6v94L0,96V10Zm4,90V96h96l-4,4H4Zm96-4H96V6l4,4V96ZM96,6v4H84V6H96ZM72,6v4H28V6H72ZM16,6v4H4V6H16Zm0-2,4-4V20l-4-4V4Zm4,16V16h4v4H20Zm8-4-4,4V0l4,4V16ZM20,4V0h4V4H20ZM72,4l4-4h4V4H72Zm8-4,4,4V16H80V0Zm4,16-4,4H76V16h8Zm-8,4-4-4V4h4V20ZM4,28V24H96v4H4ZM16,42h4v4H16V42Zm0,8V46H30v4H16Zm14-4H26V38h4v8Zm-4-8v4H16V38H26Zm8,4h4v4H34V42Zm0,8V46H48v4H34Zm14-4H44V38h4v8Zm-4-8v4H34V38H44Zm8,4h4v4H52V42Zm0,8V46H66v4H52Zm14-4H62V38h4v8Zm-4-8v4H52V38H62Zm8,4h4v4H70V42Zm0,8V46H84v4H70Zm14-4H80V38h4v8Zm-4-8v4H70V38H80ZM16,60h4v4H16V60Zm0,8V64H30v4H16Zm14-4H26V56h4v8Zm-4-8v4H16V56H26Zm8,4h4v4H34V60Zm0,8V64H48v4H34Zm14-4H44V56h4v8Zm-4-8v4H34V56H44Zm8,4h4v4H52V60Zm0,8V64H66v4H52Zm14-4H62V56h4v8Zm-4-8v4H52V56H62Zm8,4h4v4H70V60Zm0,8V64H84v4H70Zm14-4H80V56h4v8Zm-4-8v4H70V56H80ZM16,78h4v4H16V78Zm0,8V82H30v4H16Zm14-4H26V74h4v8Zm-4-8v4H16V74H26Zm8,4h4v4H34V78Zm0,8V82H48v4H34Zm14-4H44V74h4v8Zm-4-8v4H34V74H44Zm8,4h4v4H52V78Zm0,8V82H66v4H52Zm14-4H62V74h4v8Zm-4-8v4H52V74H62Zm8,4h4v4H70V78Zm0,8V82H84v4H70Zm14-4H80V74h4v8Zm-4-8v4H70V74H80Z"/>
</svg>
