<svg xmlns="http://www.w3.org/2000/svg" xmlns:xlink="http://www.w3.org/1999/xlink" width="100" height="100" viewBox="0 0 100 100">
  <metadata><?xpacket begin="﻿" id="W5M0MpCehiHzreSzNTczkc9d"?>
<x:xmpmeta xmlns:x="adobe:ns:meta/" x:xmptk="Adobe XMP Core 5.6-c138 79.159824, 2016/09/14-01:09:01        ">
   <rdf:RDF xmlns:rdf="http://www.w3.org/1999/02/22-rdf-syntax-ns#">
      <rdf:Description rdf:about=""/>
   </rdf:RDF>
</x:xmpmeta>
                                                                                                    
                                                                                                    
                                                                                                    
                                                                                                    
                                                                                                    
                                                                                                    
                                                                                                    
                                                                                                    
                                                                                                    
                                                                                                    
                                                                                                    
                                                                                                    
                                                                                                    
                                                                                                    
                                                                                                    
                                                                                                    
                                                                                                    
                                                                                                    
                                                                                                    
                                                                                                    
                           
<?xpacket end="w"?></metadata>
<defs>
    <style>
      .cls-1 {
        fill-rule: evenodd;
        fill: url(#linear-gradient);
      }
    </style>
    <linearGradient id="linear-gradient" x1="50" y1="100" x2="50" gradientUnits="userSpaceOnUse">
      <stop offset="0" stop-color="#51c660"/>
      <stop offset="1" stop-color="#8ecd53"/>
    </linearGradient>
  </defs>
  <path id="Deleted_files-icon" data-name="Deleted files-icon" class="cls-1" d="M27,17.969H73a6,6,0,0,1,6,6V94a6,6,0,0,1-6,6H27a6,6,0,0,1-6-6V23.969A6,6,0,0,1,27,17.969Zm1.875,4.094h42.25a4,4,0,0,1,4,4V92a4,4,0,0,1-4,4H28.875a4,4,0,0,1-4-4V26.063A4,4,0,0,1,28.875,22.063ZM22.933,14V10H77.066v4H22.933ZM59.666,30h3.867V88H59.666V30Zm-11.6,0h3.867V88H48.066V30Zm-11.6,0h3.867V88H36.466V30ZM44.2,10H40.333S39.615,0.2,50,0c10.134-.192,9.667,10,9.667,10H55.8S53.051,4,50,4C47.269,4,44.2,10,44.2,10Z"/>
</svg>
