<svg xmlns="http://www.w3.org/2000/svg" xmlns:xlink="http://www.w3.org/1999/xlink" width="100" height="100" viewBox="0 0 100 100">
  <metadata><?xpacket begin="﻿" id="W5M0MpCehiHzreSzNTczkc9d"?>
<x:xmpmeta xmlns:x="adobe:ns:meta/" x:xmptk="Adobe XMP Core 5.6-c138 79.159824, 2016/09/14-01:09:01        ">
   <rdf:RDF xmlns:rdf="http://www.w3.org/1999/02/22-rdf-syntax-ns#">
      <rdf:Description rdf:about=""/>
   </rdf:RDF>
</x:xmpmeta>
                                                                                                    
                                                                                                    
                                                                                                    
                                                                                                    
                                                                                                    
                                                                                                    
                                                                                                    
                                                                                                    
                                                                                                    
                                                                                                    
                                                                                                    
                                                                                                    
                                                                                                    
                                                                                                    
                                                                                                    
                                                                                                    
                                                                                                    
                                                                                                    
                                                                                                    
                                                                                                    
                           
<?xpacket end="w"?></metadata>
<defs>
    <style>
      .cls-1 {
        fill-rule: evenodd;
        fill: url(#linear-gradient);
      }
    </style>
    <linearGradient id="linear-gradient" x1="50" y1="89" x2="50" y2="11" gradientUnits="userSpaceOnUse">
      <stop offset="0" stop-color="#52c660"/>
      <stop offset="1" stop-color="#fdba01"/>
    </linearGradient>
  </defs>
  <path id="Gallery-icon" class="cls-1" d="M0,41V38H72v3H0Zm0,0H3L3.046,89H0V41ZM3,89V86H69v3H3Zm69,0H69V41h3V89ZM58,62l3-2V77H58V62Zm3,15c-0.058.054-.019,2.955,0,3H17V77H61ZM21,77H17L38,54l2,3ZM38,54l2-2s8.981,10.97,9,11c1.5,2.3,2,3,2,3l-3,2ZM51,66l-2-3,6-6,2,3Zm4-9,2-2,4,5-3,2a14.853,14.853,0,0,0-1-2C56.16,58.6,55,57,55,57ZM15.347,49.29a4.382,4.382,0,1,1-4.332,4.381A4.357,4.357,0,0,1,15.347,49.29Zm0.031,1.635a2.793,2.793,0,1,1-2.754,2.792A2.773,2.773,0,0,1,15.378,50.926ZM36.634,11l3.96,0.987L32.99,38.4l-4.049-.231Zm2.97,4.937,0.99-3.949L96.04,26.8l-0.99,3.949ZM96.04,26.8L100,27.785,88.347,68.977,85,68ZM86,65l-1,3L72,64V61ZM72,57V54l11,2,2,3Zm13,2-2-3,2-12,3.347,0.333Zm3.347-14.667L85,44l-2-2V38ZM83,38v4l-7,5-2-3Zm-6,4-3,2s0.062,0.313-2-3c-0.1-.156,0-3.3,0-3a15.607,15.607,0,0,1-2.419-.116C68.141,35.811,67,34,67,34l3-2ZM68,29l2.068,3.01L60,38H54ZM46.8,21.521a4.35,4.35,0,1,1-4.347,4.35A4.349,4.349,0,0,1,46.8,21.521Zm0,1.543A2.762,2.762,0,1,1,44,25.826,2.781,2.781,0,0,1,46.8,23.064Z"/>
</svg>
