<svg xmlns="http://www.w3.org/2000/svg" width="100" height="100" viewBox="0 0 100 100">
  <metadata><?xpacket begin="﻿" id="W5M0MpCehiHzreSzNTczkc9d"?>
<x:xmpmeta xmlns:x="adobe:ns:meta/" x:xmptk="Adobe XMP Core 5.6-c138 79.159824, 2016/09/14-01:09:01        ">
   <rdf:RDF xmlns:rdf="http://www.w3.org/1999/02/22-rdf-syntax-ns#">
      <rdf:Description rdf:about=""/>
   </rdf:RDF>
</x:xmpmeta>
                                                                                                    
                                                                                                    
                                                                                                    
                                                                                                    
                                                                                                    
                                                                                                    
                                                                                                    
                                                                                                    
                                                                                                    
                                                                                                    
                                                                                                    
                                                                                                    
                                                                                                    
                                                                                                    
                                                                                                    
                                                                                                    
                                                                                                    
                                                                                                    
                                                                                                    
                                                                                                    
                           
<?xpacket end="w"?></metadata>
<defs>
    <style>
      .cls-1 {
        fill: #999;
        fill-rule: evenodd;
      }
    </style>
  </defs>
  <path id="gallery-button-icon" class="cls-1" d="M0,0H100V100H0V0ZM4,4H96V96H4V4ZM22.21,22.21H44.42V44.42H22.21V22.21ZM26,26H40.737V40.737H26V26ZM59.263,22.21H81.585V44.42H59.263V22.21Zm0,33.371H81.585v22.1H59.263V55.58Zm-37.054,0H44.42v22.1H22.21V55.58ZM26,59.263H40.737V74H26V59.263Zm36.83,0H77.679V74H62.835V59.263Zm0-33.259H77.679V40.737H62.835V26Z"/>
</svg>
