<svg xmlns="http://www.w3.org/2000/svg" width="28" height="39" viewBox="0 0 28 39">
  <metadata><?xpacket begin="﻿" id="W5M0MpCehiHzreSzNTczkc9d"?>
<x:xmpmeta xmlns:x="adobe:ns:meta/" x:xmptk="Adobe XMP Core 5.6-c138 79.159824, 2016/09/14-01:09:01        ">
   <rdf:RDF xmlns:rdf="http://www.w3.org/1999/02/22-rdf-syntax-ns#">
      <rdf:Description rdf:about=""/>
   </rdf:RDF>
</x:xmpmeta>
                                                                                                    
                                                                                                    
                                                                                                    
                                                                                                    
                                                                                                    
                                                                                                    
                                                                                                    
                                                                                                    
                                                                                                    
                                                                                                    
                                                                                                    
                                                                                                    
                                                                                                    
                                                                                                    
                                                                                                    
                                                                                                    
                                                                                                    
                                                                                                    
                                                                                                    
                                                                                                    
                           
<?xpacket end="w"?></metadata>
<defs>
    <style>
      .cls-1 {
        fill: #37c49c;
        fill-rule: evenodd;
      }
    </style>
  </defs>
  <path id="Shape_17_copy_3" data-name="Shape 17 copy 3" class="cls-1" d="M0,0H16S28,11.3,28,12V39H0V0ZM2,2c0-.119,22.026-0.039,15,0H16S26.043,12.384,26,12c-0.127-1.124.287,24.831,0,25,0.038-.037-24,0-24,0V2ZM14,2h2V13H14V2Zm2,11V11h9a3.512,3.512,0,0,1,1,1,1.207,1.207,0,0,1,0,1H16Z"/>
  <path id="JPG" class="cls-1" d="M6.8,34.515a2.069,2.069,0,0,0,2.289-2.039v-5.1H8.3v5.1a1.332,1.332,0,0,1-1.519,1.389,1.342,1.342,0,0,1-1.529-1.379v-0.06H4.517v0.06A2.048,2.048,0,0,0,6.8,34.515Zm3.988-.14h0.78V31.836h1.959a2.234,2.234,0,1,0,0-4.458H10.783v7Zm0.78-3.188V28.029h1.889a1.582,1.582,0,1,1,0,3.158H11.563Zm10.925-1.509a2.5,2.5,0,0,0-2.759-2.439,2.761,2.761,0,0,0-2.858,3.068v1.109a2.809,2.809,0,0,0,2.908,3.1,2.591,2.591,0,0,0,2.778-2.778V31H19.849v0.65h1.959v0.18a1.853,1.853,0,0,1-2.019,2.059c-1.519,0-2.139-1.069-2.139-2.449V30.277c0-1.4.65-2.389,2.089-2.389a1.842,1.842,0,0,1,2.009,1.789h0.74Z"/>
</svg>
