<svg xmlns="http://www.w3.org/2000/svg" xmlns:xlink="http://www.w3.org/1999/xlink" width="100" height="100" viewBox="0 0 100 100">
  <metadata><?xpacket begin="﻿" id="W5M0MpCehiHzreSzNTczkc9d"?>
<x:xmpmeta xmlns:x="adobe:ns:meta/" x:xmptk="Adobe XMP Core 5.6-c138 79.159824, 2016/09/14-01:09:01        ">
   <rdf:RDF xmlns:rdf="http://www.w3.org/1999/02/22-rdf-syntax-ns#">
      <rdf:Description rdf:about=""/>
   </rdf:RDF>
</x:xmpmeta>
                                                                                                    
                                                                                                    
                                                                                                    
                                                                                                    
                                                                                                    
                                                                                                    
                                                                                                    
                                                                                                    
                                                                                                    
                                                                                                    
                                                                                                    
                                                                                                    
                                                                                                    
                                                                                                    
                                                                                                    
                                                                                                    
                                                                                                    
                                                                                                    
                                                                                                    
                                                                                                    
                           
<?xpacket end="w"?></metadata>
<defs>
    <style>
      .cls-1 {
        fill-rule: evenodd;
        fill: url(#linear-gradient);
      }
    </style>
    <linearGradient id="linear-gradient" x1="50" y1="76" x2="50" y2="17" gradientUnits="userSpaceOnUse">
      <stop offset="0" stop-color="#52c660"/>
      <stop offset="1" stop-color="#fdba01"/>
    </linearGradient>
  </defs>
  <path id="quota-icon" class="cls-1" d="M14.516,75.969L15,73H76l3,3ZM15,73l-0.484,2.969S6.036,77.091.782,67.125C-2.09,61.677,4,52,4,52l2.886,1.859s-5.4,8.73-3.052,13.266C6.763,72.782,15,73,15,73Zm71,0,1.765,2.969L79,76l-3-3H86ZM28,33l-1-3s5.633-13.529,22.614-12.991C65.8,17.521,74,31,74,31s-1.627,2-2,2c-1.519-1.224-10.037-13.081-22.386-13.044C35.1,20,28,33,28,33ZM7,54L4,52S2.857,41.537,8.412,36.171C14.98,29.827,27,30,27,30l1,3s-10.431-1.251-16.536,4.645S7,54,7,54ZM72,33l2-2s6.875,1.464,10.713,5.171A22.208,22.208,0,0,1,90.37,46.92L88.212,49c0.084-.1-1.956-7.9-6.551-11.36A27.817,27.817,0,0,0,72,33ZM88,49l2-2c0.037,0,10.691,4.518,9.973,14.229-0.855,11.545-12.208,14.74-12.208,14.74L86,73s10.062-3.48,10.921-11.771C97.608,54.588,88,49,88,49ZM10.952,50.538l-2.028-2.2s0.885-5.011,4.066-7.742c3.653-3.136,9.668-4.05,9.668-4.05l2.027,2.2s-5.222.383-8.644,3.32C12.6,45.025,10.952,50.538,10.952,50.538Z"/>
</svg>
