<svg xmlns="http://www.w3.org/2000/svg" xmlns:xlink="http://www.w3.org/1999/xlink" width="100" height="100" viewBox="0 0 100 100">
  <metadata><?xpacket begin="﻿" id="W5M0MpCehiHzreSzNTczkc9d"?>
<x:xmpmeta xmlns:x="adobe:ns:meta/" x:xmptk="Adobe XMP Core 5.6-c138 79.159824, 2016/09/14-01:09:01        ">
   <rdf:RDF xmlns:rdf="http://www.w3.org/1999/02/22-rdf-syntax-ns#">
      <rdf:Description rdf:about=""/>
   </rdf:RDF>
</x:xmpmeta>
                                                                                                    
                                                                                                    
                                                                                                    
                                                                                                    
                                                                                                    
                                                                                                    
                                                                                                    
                                                                                                    
                                                                                                    
                                                                                                    
                                                                                                    
                                                                                                    
                                                                                                    
                                                                                                    
                                                                                                    
                                                                                                    
                                                                                                    
                                                                                                    
                                                                                                    
                                                                                                    
                           
<?xpacket end="w"?></metadata>
<defs>
    <style>
      .cls-1 {
        fill-rule: evenodd;
        fill: url(#linear-gradient);
      }
    </style>
    <linearGradient id="linear-gradient" x1="49.484" y1="100" x2="49.484" gradientUnits="userSpaceOnUse">
      <stop offset="0" stop-color="#51c660"/>
      <stop offset="1" stop-color="#8ecd53"/>
    </linearGradient>
  </defs>
  <path id="Recent-icon" class="cls-1" d="M63.655,47.917A26.043,26.043,0,1,1,37.311,73.958,26.194,26.194,0,0,1,63.655,47.917Zm0,4.167A21.965,21.965,0,1,1,41.33,74.045,22.146,22.146,0,0,1,63.655,52.083ZM62,56h4V72H62V56Zm0,20V72H80l-0.153,4H62ZM70,4h4V44H70V4ZM69.724,0l4.049,4H8.982L13,0H69.724ZM9,4h4V80H9V4Zm2.007,80L8.982,80H35.3v4h-24.3ZM21.131,14V10H59v4H21.131Zm0,18V28H59v4H21.131Zm0,16V44h24.3v4h-24.3Z"/>
</svg>
