<svg xmlns="http://www.w3.org/2000/svg" xmlns:xlink="http://www.w3.org/1999/xlink" width="100" height="100" viewBox="0 0 100 100">
  <metadata><?xpacket begin="﻿" id="W5M0MpCehiHzreSzNTczkc9d"?>
<x:xmpmeta xmlns:x="adobe:ns:meta/" x:xmptk="Adobe XMP Core 5.6-c138 79.159824, 2016/09/14-01:09:01        ">
   <rdf:RDF xmlns:rdf="http://www.w3.org/1999/02/22-rdf-syntax-ns#">
      <rdf:Description rdf:about=""/>
   </rdf:RDF>
</x:xmpmeta>
                                                                                                    
                                                                                                    
                                                                                                    
                                                                                                    
                                                                                                    
                                                                                                    
                                                                                                    
                                                                                                    
                                                                                                    
                                                                                                    
                                                                                                    
                                                                                                    
                                                                                                    
                                                                                                    
                                                                                                    
                                                                                                    
                                                                                                    
                                                                                                    
                                                                                                    
                                                                                                    
                           
<?xpacket end="w"?></metadata>
<defs>
    <style>
      .cls-1 {
        fill-rule: evenodd;
        fill: url(#linear-gradient);
      }
    </style>
    <linearGradient id="linear-gradient" x1="49.594" y1="100" x2="49.594" y2="1" gradientUnits="userSpaceOnUse">
      <stop offset="0" stop-color="#52c660"/>
      <stop offset="1" stop-color="#fdba01"/>
    </linearGradient>
  </defs>
  <path class="cls-1" d="M41.661,75.757m3.875-50.642M0,44.094l3.968-1.979L4,59,0,55.968V44.094ZM4,46V42l8-3,4,2Zm12-5-4-2,4-7,5-1Zm5-10-5,1-5-8,3-3ZM11,24L8.516,20.926,22,8l3,3ZM22,14l3-3,7,6v5Zm10,8V17l6-3,4,2Zm10-6-4-2L42,1l2,4ZM44,5L42,1H57L54,5H44ZM54,5l3-4,4,13-3,4Zm4,13,3-4,5,4v5Zm8,5V18l14-8-1,5Zm13-8,1-5L92,23H87Zm8,8h5L83,34l-5.169-1.068ZM78,33l5,1,3,7-3,3Zm4.842,11.035L86,41l13,3-4,3ZM95,47l4.194-2.906V55.968L95,53V47Zm0,6,4,3L86,62l-2-4ZM84,58l2,4-2,3H80Zm-4,7h4l5.148,14.02L85,78Zm5,13,3.84,0.973L81,90l-2-5Zm-6,7,2,5L67,84l1-4ZM68,80l-1,4-6,1-3-4ZM58,81l3,4-4,15-3-4ZM54,96l3,4H42l3-4h9Zm-9,0-3,4L38,84l4-2ZM42.142,81.753L38,84l-3-2V78ZM35,78v4L21,92l-0.162-6.087ZM21,86v6L8.146,80.361,13,79Zm-8-7L8,80l9-14h5Zm9-13H17l-2-4,4-3Zm-3-7-4,3L4,60V56Zm29,9h3v6H48V68Zm8.731,0,2.331-1.889,3.777,4.662-2.331,1.889Zm6.877-5.717,1.747-2.439,4.878,3.494-1.747,2.439ZM66.09,55.71l0.091-3,6,0.182-0.091,3Zm0.382-9.3L65.9,43.465l5.89-1.142,0.571,2.945Zm-3.933-7.3L60.42,36.989l4.248-4.238,2.119,2.124ZM51.68,33.008l-2.687-.167L49.3,27l2.687,0.167ZM45,27v4S30,34.154,30,49c0,16.488,12,19,12,19v4S25.943,68.365,25.943,49.369C25.943,30.425,44.878,27,45,27Zm4.5,9A14.5,14.5,0,1,1,35,50.5,14.5,14.5,0,0,1,49.5,36Zm0,4A10.5,10.5,0,1,1,39,50.5,10.5,10.5,0,0,1,49.5,40Zm0,0A10.5,10.5,0,1,1,39,50.5,10.5,10.5,0,0,1,49.5,40Zm0,0A10.5,10.5,0,1,1,39,50.5,10.5,10.5,0,0,1,49.5,40Zm0,7A3.5,3.5,0,1,1,46,50.5,3.5,3.5,0,0,1,49.5,47Z"/>
</svg>
