<svg xmlns="http://www.w3.org/2000/svg" xmlns:xlink="http://www.w3.org/1999/xlink" width="100" height="100" viewBox="0 0 100 100">
  <metadata><?xpacket begin="﻿" id="W5M0MpCehiHzreSzNTczkc9d"?>
<x:xmpmeta xmlns:x="adobe:ns:meta/" x:xmptk="Adobe XMP Core 5.6-c138 79.159824, 2016/09/14-01:09:01        ">
   <rdf:RDF xmlns:rdf="http://www.w3.org/1999/02/22-rdf-syntax-ns#">
      <rdf:Description rdf:about=""/>
   </rdf:RDF>
</x:xmpmeta>
                                                                                                    
                                                                                                    
                                                                                                    
                                                                                                    
                                                                                                    
                                                                                                    
                                                                                                    
                                                                                                    
                                                                                                    
                                                                                                    
                                                                                                    
                                                                                                    
                                                                                                    
                                                                                                    
                                                                                                    
                                                                                                    
                                                                                                    
                                                                                                    
                                                                                                    
                                                                                                    
                           
<?xpacket end="w"?></metadata>
<defs>
    <style>
      .cls-1 {
        fill-rule: evenodd;
        fill: url(#linear-gradient);
      }
    </style>
    <linearGradient id="linear-gradient" x1="52.5" y1="91" x2="52.5" y2="5.625" gradientUnits="userSpaceOnUse">
      <stop offset="0" stop-color="#52c660"/>
      <stop offset="1" stop-color="#f0bb08"/>
    </linearGradient>
  </defs>
  <path id="Todos-icon" class="cls-1" d="M12.023,76.576L16,76l9,12-2,3ZM25,88l-2-3L34.091,65.64l4.925,0.744ZM49.8,20.609v-3.6H93v3.6H49.8Zm0,27.019v-3.6H93v3.6H49.8Zm0,32.422v-3.6H93v3.6H49.8ZM11.992,44.789l3.977-.568,9,11.823-2,2.956ZM24.969,56.044l-2-2.956L34.059,34.015l4.925,0.733ZM12.023,16.576L16,16l9,12-2,3ZM25,28l-2-3L34.091,5.64l4.925,0.744Z"/>
</svg>
