<svg xmlns="http://www.w3.org/2000/svg" width="28" height="39" viewBox="0 0 28 39">
  <metadata><?xpacket begin="﻿" id="W5M0MpCehiHzreSzNTczkc9d"?>
<x:xmpmeta xmlns:x="adobe:ns:meta/" x:xmptk="Adobe XMP Core 5.6-c138 79.159824, 2016/09/14-01:09:01        ">
   <rdf:RDF xmlns:rdf="http://www.w3.org/1999/02/22-rdf-syntax-ns#">
      <rdf:Description rdf:about=""/>
   </rdf:RDF>
</x:xmpmeta>
                                                                                                    
                                                                                                    
                                                                                                    
                                                                                                    
                                                                                                    
                                                                                                    
                                                                                                    
                                                                                                    
                                                                                                    
                                                                                                    
                                                                                                    
                                                                                                    
                                                                                                    
                                                                                                    
                                                                                                    
                                                                                                    
                                                                                                    
                                                                                                    
                                                                                                    
                                                                                                    
                           
<?xpacket end="w"?></metadata>
<defs>
    <style>
      .cls-1 {
        fill: #998b79;
        fill-rule: evenodd;
      }
    </style>
  </defs>
  <path id="Shape_17_copy_3" data-name="Shape 17 copy 3" class="cls-1" d="M0,0H16S28,11.3,28,12V39H0V0ZM2,2c0-.119,22.026-0.039,15,0H16S26.043,12.384,26,12c-0.127-1.124.287,24.831,0,25,0.038-.037-24,0-24,0V2ZM14,2h2V13H14V2Zm2,11V11h9a3.512,3.512,0,0,1,1,1,1.207,1.207,0,0,1,0,1H16Z"/>
  <path id="TXT" class="cls-1" d="M7.868,34.375h0.78V28.029h2.139v-0.65H5.73v0.65H7.868v6.346Zm6.525-3.558,2.329-3.438h-0.8l-1.929,2.839-1.929-2.839h-0.8l2.329,3.438-2.419,3.558H12l2-2.958,2,2.958h0.819Zm5.094,3.558h0.78V28.029h2.139v-0.65H17.349v0.65h2.139v6.346Z"/>
</svg>
