<svg xmlns="http://www.w3.org/2000/svg" xmlns:xlink="http://www.w3.org/1999/xlink" width="100" height="100" viewBox="0 0 100 100">
  <metadata><?xpacket begin="﻿" id="W5M0MpCehiHzreSzNTczkc9d"?>
<x:xmpmeta xmlns:x="adobe:ns:meta/" x:xmptk="Adobe XMP Core 5.6-c138 79.159824, 2016/09/14-01:09:01        ">
   <rdf:RDF xmlns:rdf="http://www.w3.org/1999/02/22-rdf-syntax-ns#">
      <rdf:Description rdf:about=""/>
   </rdf:RDF>
</x:xmpmeta>
                                                                                                    
                                                                                                    
                                                                                                    
                                                                                                    
                                                                                                    
                                                                                                    
                                                                                                    
                                                                                                    
                                                                                                    
                                                                                                    
                                                                                                    
                                                                                                    
                                                                                                    
                                                                                                    
                                                                                                    
                                                                                                    
                                                                                                    
                                                                                                    
                                                                                                    
                                                                                                    
                           
<?xpacket end="w"?></metadata>
<defs>
    <style>
      .cls-1, .cls-2 {
        fill-rule: evenodd;
      }

      .cls-1 {
        fill: url(#linear-gradient);
      }

      .cls-2 {
        fill: url(#linear-gradient-2);
      }
    </style>
    <linearGradient id="linear-gradient" x1="50" y1="97" x2="50" y2="3" gradientUnits="userSpaceOnUse">
      <stop offset="0" stop-color="#51c660"/>
      <stop offset="1" stop-color="#8ecd53"/>
    </linearGradient>
    <linearGradient id="linear-gradient-2" x1="50" y1="97" x2="50" y2="3" gradientUnits="userSpaceOnUse">
      <stop offset="0" stop-color="#52c660"/>
      <stop offset="1" stop-color="#fdba01"/>
    </linearGradient>
  </defs>
  <path id="All_files-icon" data-name="All files-icon" class="cls-1" d="M15,7h4V71H15V7Zm4,0V3H56L55,7H19ZM55,7l1-4L73,20l-4,1ZM69,21l4-1V52H69V21ZM-0.014,34.96L4,35V90L0,91ZM6,33V29h9v4H6ZM6,97V93H78v4H6Zm78-4-4-3L96,58h4ZM96,52l-3,4H33V52H96ZM28,55l3,2L14.621,90.321l-3.316-1.681ZM4,35H0a10.375,10.375,0,0,1,1.84-3.8C3.1,29.5,6,29,6,29v4a0.331,0.331,0,0,0-.453.08A4.461,4.461,0,0,0,4,35ZM0,91l4-1,2,3v4a9.729,9.729,0,0,1-4-2A8.363,8.363,0,0,1,0,91Zm80-1,4,3-2.2,1.832A14.112,14.112,0,0,1,78,97V93ZM93,56l3-4a6.971,6.971,0,0,1,3,2,7.5,7.5,0,0,1,1,4H96ZM31,57l-3-2a10.53,10.53,0,0,1,1.988-1.983A6.276,6.276,0,0,1,33,52v4ZM19,3V7H15a4.8,4.8,0,0,1,1-3A5.09,5.09,0,0,1,19,3Z"/>
  <path id="All_files-icon-hover" data-name="All files-icon-hover" class="cls-2" d="M15,7h4V71H15V7Zm4,0V3H56L55,7H19ZM55,7l1-4L73,20l-4,1ZM69,21l4-1V52H69V21ZM-0.014,34.96L4,35V90L0,91ZM6,33V29h9v4H6ZM6,97V93H78v4H6Zm78-4-4-3L96,58h4ZM96,52l-3,4H33V52H96ZM28,55l3,2L14.621,90.321l-3.316-1.681ZM4,35H0a10.375,10.375,0,0,1,1.84-3.8C3.1,29.5,6,29,6,29v4a0.331,0.331,0,0,0-.453.08A4.461,4.461,0,0,0,4,35ZM0,91l4-1,2,3v4a9.729,9.729,0,0,1-4-2A8.363,8.363,0,0,1,0,91Zm80-1,4,3-2.2,1.832A14.112,14.112,0,0,1,78,97V93ZM93,56l3-4a6.971,6.971,0,0,1,3,2,7.5,7.5,0,0,1,1,4H96ZM31,57l-3-2a10.53,10.53,0,0,1,1.988-1.983A6.276,6.276,0,0,1,33,52v4ZM19,3V7H15a4.8,4.8,0,0,1,1-3A5.09,5.09,0,0,1,19,3Z"/>
</svg>
