<svg xmlns="http://www.w3.org/2000/svg" xmlns:xlink="http://www.w3.org/1999/xlink" width="100" height="100" viewBox="0 0 100 100">
  <metadata><?xpacket begin="﻿" id="W5M0MpCehiHzreSzNTczkc9d"?>
<x:xmpmeta xmlns:x="adobe:ns:meta/" x:xmptk="Adobe XMP Core 5.6-c138 79.159824, 2016/09/14-01:09:01        ">
   <rdf:RDF xmlns:rdf="http://www.w3.org/1999/02/22-rdf-syntax-ns#">
      <rdf:Description rdf:about=""/>
   </rdf:RDF>
</x:xmpmeta>
                                                                                                    
                                                                                                    
                                                                                                    
                                                                                                    
                                                                                                    
                                                                                                    
                                                                                                    
                                                                                                    
                                                                                                    
                                                                                                    
                                                                                                    
                                                                                                    
                                                                                                    
                                                                                                    
                                                                                                    
                                                                                                    
                                                                                                    
                                                                                                    
                                                                                                    
                                                                                                    
                           
<?xpacket end="w"?></metadata>
<defs>
    <style>
      .cls-1 {
        fill-rule: evenodd;
        fill: url(#linear-gradient);
      }
    </style>
    <linearGradient id="linear-gradient" x1="50" y1="100" x2="50" gradientUnits="userSpaceOnUse">
      <stop offset="0" stop-color="#52c660"/>
      <stop offset="1" stop-color="#f0bb08"/>
    </linearGradient>
  </defs>
  <path id="Contacts-icon_copy" data-name="Contacts-icon copy" class="cls-1" d="M23,35l6,1S13.635,40.478,7.395,50.087c-2.36,3.635-4.427,8.979-4.356,12.88,0.088,4.856,4.356,8.586,4.356,8.586H4.49S0.8,68.693.134,64.4c-0.758-4.915,1.653-11.58,4.356-15.742C10.886,38.808,23,35,23,35ZM6,71.993V70H17.993v1.991H6ZM60,70l-1-3L81,57l2,3Zm-1,9,2-3,21,9-2,3ZM51.406,64A9.009,9.009,0,1,1,42,73,9.21,9.21,0,0,1,51.406,64ZM90.531,46a9.012,9.012,0,1,1-9.469,9A9.243,9.243,0,0,1,90.531,46ZM89.063,82a9.01,9.01,0,1,1-9.437,9A9.227,9.227,0,0,1,89.063,82ZM51.5,66A6.5,6.5,0,1,1,45,72.5,6.5,6.5,0,0,1,51.5,66ZM46,6L42,7S36.561,2.691,30,3c-7.39.348-16,5.684-16,13,0,19.308,18,17,18,17l-2,3S7.756,35.095,10.538,15.295C11.931,5.379,21.422-.165,30,0,38.357,0.161,45.822,5.9,46,6Zm8.625,6C65.878,12,75,20.017,75,29.906S65.878,47.813,54.625,47.813,34.25,39.8,34.25,29.906,43.372,12,54.625,12Zm-0.031,2.875c9.613,0,17.406,6.716,17.406,15s-7.793,15-17.406,15-17.406-6.716-17.406-15S44.981,14.875,54.594,14.875Zm-7.46,31.969c0.136,0.1,4.968.9,4.866,1.156,0,0-14.365,4.477-20.605,14.087-2.361,3.635-4.427,8.979-4.356,12.88C27.077,77.1,28.365,79.424,29,81a18.576,18.576,0,0,1,1,3l-1.51-.447S24.8,80.693,24.134,76.4c-0.758-4.915,1.66-11.576,4.356-15.742C34.826,50.866,46.818,47.152,47.134,46.844ZM30,83.99L29,81l12,0,2,3ZM70.223,52.627c0.448-.123,3.216-0.991,3.216-0.991L77,56l-4,2A12.338,12.338,0,0,0,70.223,52.627ZM89,85a6,6,0,1,1-6,6A6,6,0,0,1,89,85Zm1.5-37A6.5,6.5,0,1,1,84,54.5,6.5,6.5,0,0,1,90.5,48Z"/>
</svg>
