<svg xmlns="http://www.w3.org/2000/svg" width="50" height="50" viewBox="0 0 50 50">
  <metadata><?xpacket begin="﻿" id="W5M0MpCehiHzreSzNTczkc9d"?>
<x:xmpmeta xmlns:x="adobe:ns:meta/" x:xmptk="Adobe XMP Core 5.6-c138 79.159824, 2016/09/14-01:09:01        ">
   <rdf:RDF xmlns:rdf="http://www.w3.org/1999/02/22-rdf-syntax-ns#">
      <rdf:Description rdf:about=""/>
   </rdf:RDF>
</x:xmpmeta>
                                                                                                    
                                                                                                    
                                                                                                    
                                                                                                    
                                                                                                    
                                                                                                    
                                                                                                    
                                                                                                    
                                                                                                    
                                                                                                    
                                                                                                    
                                                                                                    
                                                                                                    
                                                                                                    
                                                                                                    
                                                                                                    
                                                                                                    
                                                                                                    
                                                                                                    
                                                                                                    
                           
<?xpacket end="w"?></metadata>
<defs>
    <style>
      .cls-1 {
        fill: #47b8f7;
        fill-rule: evenodd;
      }
    </style>
  </defs>
  <path id="Edit-icon" class="cls-1" d="M40,2h2L41.993,26.182,40,26V2ZM39.743,0L42,2H8L8.24,0h31.5ZM6,2L8,0V48H6V2ZM8,50a1.644,1.644,0,0,1-1.152-.75C6.411,48.659,6,48,6,48H24v2H8Zm6-40V8H34v2H14Zm0,8V16H34v2H14Zm0,10V26H34v2H14Zm0,8V34H26v2H14Zm16,9-2-1L41,30l2,2ZM41,30l2-1,5.021,5.26L47,37Zm4,5,2,2L34,50l-1-2ZM28,44l2,1,0.14,5H28V44Zm0,6v-2.14L33,48l1,2H28ZM39,36l2-2,2,3-2,2Z"/>
</svg>
