<svg xmlns="http://www.w3.org/2000/svg" width="50" height="50" viewBox="0 0 50 50">
  <metadata><?xpacket begin="﻿" id="W5M0MpCehiHzreSzNTczkc9d"?>
<x:xmpmeta xmlns:x="adobe:ns:meta/" x:xmptk="Adobe XMP Core 5.6-c138 79.159824, 2016/09/14-01:09:01        ">
   <rdf:RDF xmlns:rdf="http://www.w3.org/1999/02/22-rdf-syntax-ns#">
      <rdf:Description rdf:about=""/>
   </rdf:RDF>
</x:xmpmeta>
                                                                                                    
                                                                                                    
                                                                                                    
                                                                                                    
                                                                                                    
                                                                                                    
                                                                                                    
                                                                                                    
                                                                                                    
                                                                                                    
                                                                                                    
                                                                                                    
                                                                                                    
                                                                                                    
                                                                                                    
                                                                                                    
                                                                                                    
                                                                                                    
                                                                                                    
                                                                                                    
                           
<?xpacket end="w"?></metadata>
<defs>
    <style>
      .cls-1 {
        fill: #ffba00;
        fill-rule: evenodd;
      }
    </style>
  </defs>
  <path id="Favorites-icon_copy" data-name="Favorites-icon copy" class="cls-1" d="M11,2L10.988,0H37.993L38,2H11ZM37.993,0L40,2c0.01-.023.1,47.756,0.051,47.878A11.975,11.975,0,0,1,37.993,50V0ZM10.988,50h-2V2l2-2V50ZM11,50V47L25,32v4ZM25,36V32L38,47v3Zm6.984-8.951-7.276-5.168L17.564,27.23l2.668-8.516-7.3-5.14,8.924-.095L24.5,4.954l2.848,8.457,8.924-.129L29.1,18.6Zm-3.371-4.162L24.55,19.874l-3.988,3.12,1.489-4.966-4.073-3,4.983-.055L24.432,10l1.59,4.933L31,14.858l-4,3.1Z"/>
</svg>
