<svg xmlns="http://www.w3.org/2000/svg" xmlns:xlink="http://www.w3.org/1999/xlink" width="100" height="100" viewBox="0 0 100 100">
  <metadata><?xpacket begin="﻿" id="W5M0MpCehiHzreSzNTczkc9d"?>
<x:xmpmeta xmlns:x="adobe:ns:meta/" x:xmptk="Adobe XMP Core 5.6-c138 79.159824, 2016/09/14-01:09:01        ">
   <rdf:RDF xmlns:rdf="http://www.w3.org/1999/02/22-rdf-syntax-ns#">
      <rdf:Description rdf:about=""/>
   </rdf:RDF>
</x:xmpmeta>
                                                                                                    
                                                                                                    
                                                                                                    
                                                                                                    
                                                                                                    
                                                                                                    
                                                                                                    
                                                                                                    
                                                                                                    
                                                                                                    
                                                                                                    
                                                                                                    
                                                                                                    
                                                                                                    
                                                                                                    
                                                                                                    
                                                                                                    
                                                                                                    
                                                                                                    
                                                                                                    
                           
<?xpacket end="w"?></metadata>
<defs>
    <style>
      .cls-1 {
        fill-rule: evenodd;
        fill: url(#linear-gradient);
      }
    </style>
    <linearGradient id="linear-gradient" x1="49" y1="100" x2="49" y2="-0.063" gradientUnits="userSpaceOnUse">
      <stop offset="0" stop-color="#44b749"/>
      <stop offset="1" stop-color="#ffba00"/>
    </linearGradient>
  </defs>
  <path class="cls-1" d="M69,0a11.088,11.088,0,0,1,2.688,1.688A4.833,4.833,0,0,1,73,4V53H69V0Zm0,0V4H4V0H69ZM0,4A15.116,15.116,0,0,1,2,1,2.931,2.931,0,0,1,4.047,0L4,100a3.1,3.1,0,0,1-2-1,14.385,14.385,0,0,1-2-3S0,4,0,4Zm4,96V96l31.99-.009V100H4ZM16.19,20.2V16.16H56.666V20.2H16.19Zm0,16.16V32.32H56.666v4.04H16.19Zm0,20.2V52.52H56.666v4.04H16.19Zm0,16.16V68.68H40.476v4.04H16.19ZM53.972,75.98l0.752-4.76s-13.053,6.94-13.633,13.561c-0.3,3.364-.052,8.565,2.6,11.256,3.5,3.551,9.847,4.112,11.409,3.978,2.758-.237,17.716-8.153,22.308-16.522,3.579-6.523-2.715-13.985-2.715-13.985l-2.637,2.835s4.476,3.979,2.483,8.526c-1.8,6.089-22.058,22.707-28.662,11.719C39.724,82.353,53.972,75.98,53.972,75.98Zm30.881,0.052-0.811,4.75S97.18,74,97.843,67.39C98.18,64.03,98,58.827,95.384,56.1c-3.454-3.593-9.8-4.232-11.359-4.117-2.761.2-17.817,7.936-22.513,16.248-3.66,6.479,2.541,14.017,2.541,14.017l2.672-2.8s-4.427-4.033-2.377-8.556c1.88-6.067,22.339-22.435,28.807-11.368C99.18,69.835,84.853,76.033,84.853,76.033Z"/>
</svg>
