<svg xmlns="http://www.w3.org/2000/svg" xmlns:xlink="http://www.w3.org/1999/xlink" width="100" height="100" viewBox="0 0 100 100">
  <metadata><?xpacket begin="﻿" id="W5M0MpCehiHzreSzNTczkc9d"?>
<x:xmpmeta xmlns:x="adobe:ns:meta/" x:xmptk="Adobe XMP Core 5.6-c138 79.159824, 2016/09/14-01:09:01        ">
   <rdf:RDF xmlns:rdf="http://www.w3.org/1999/02/22-rdf-syntax-ns#">
      <rdf:Description rdf:about=""/>
   </rdf:RDF>
</x:xmpmeta>
                                                                                                    
                                                                                                    
                                                                                                    
                                                                                                    
                                                                                                    
                                                                                                    
                                                                                                    
                                                                                                    
                                                                                                    
                                                                                                    
                                                                                                    
                                                                                                    
                                                                                                    
                                                                                                    
                                                                                                    
                                                                                                    
                                                                                                    
                                                                                                    
                                                                                                    
                                                                                                    
                           
<?xpacket end="w"?></metadata>
<defs>
    <style>
      .cls-1 {
        fill-rule: evenodd;
        fill: url(#linear-gradient);
      }
    </style>
    <linearGradient id="linear-gradient" x1="46.516" y1="100" x2="46.516" gradientUnits="userSpaceOnUse">
      <stop offset="0" stop-color="#55c55e"/>
      <stop offset="0.985" stop-color="#97d161"/>
      <stop offset="1" stop-color="#97d161"/>
    </linearGradient>
  </defs>
  <path id="Notifications-icon" class="cls-1" d="M12.421,83.333L15,79H78l3,4ZM15,79l-2.579,4.333s-9.487-3.544-8.279-12.5C4.835,65.7,12.291,60.815,16.56,54.167c4.724-7.358.337-24.349,4.14-31.25A54.347,54.347,0,0,1,45.536,0H47s0.02,4,0,4C40.729,4,30.98,14.886,26.909,20.833c-5.258,7.681-3.145,14.772-4.139,25-1.852,19.056-14.488,17.941-14.488,25A7.81,7.81,0,0,0,15,79Zm63,0,3,4s9.063-3.211,7.872-12.167C88.189,65.7,80.837,60.815,76.628,54.167c-4.658-7.358-.332-24.349-4.081-31.25C63.456,6.185,47,0,47,0h0s0,1.836,0,3a5.081,5.081,0,0,0,0,1c3.448,0.083,15.41,10.886,19.424,16.833,5.185,7.681,3.1,14.772,4.081,25,1.827,19.056,14.285,17.947,14.285,25C84.791,76.982,78,79,78,79ZM31.048,85.417h4.269c-0.043,0,2.371,10.417,12.289,10.417,9.955,0,10.193-10.417,10.349-10.417h4.139S60.45,100,47.606,100C34.538,100,31.048,85.417,31.048,85.417Z"/>
</svg>
