<svg xmlns="http://www.w3.org/2000/svg" width="100" height="100" viewBox="0 0 100 100">
  <metadata><?xpacket begin="﻿" id="W5M0MpCehiHzreSzNTczkc9d"?>
<x:xmpmeta xmlns:x="adobe:ns:meta/" x:xmptk="Adobe XMP Core 5.6-c138 79.159824, 2016/09/14-01:09:01        ">
   <rdf:RDF xmlns:rdf="http://www.w3.org/1999/02/22-rdf-syntax-ns#">
      <rdf:Description rdf:about=""/>
   </rdf:RDF>
</x:xmpmeta>
                                                                                                    
                                                                                                    
                                                                                                    
                                                                                                    
                                                                                                    
                                                                                                    
                                                                                                    
                                                                                                    
                                                                                                    
                                                                                                    
                                                                                                    
                                                                                                    
                                                                                                    
                                                                                                    
                                                                                                    
                                                                                                    
                                                                                                    
                                                                                                    
                                                                                                    
                                                                                                    
                           
<?xpacket end="w"?></metadata>
<defs>
    <style>
      .cls-1 {
        fill: #666;
        fill-rule: evenodd;
      }
    </style>
  </defs>
  <path id="Shared-icon" class="cls-1" d="M31.422,44A20.179,20.179,0,0,1,29,40L68,23l2,4S31.422,44.5,31.422,44ZM29,60l3-5L69,71l-3,4ZM16.219,34.344c8.957,0,16.219,7.009,16.219,15.656S25.176,65.656,16.219,65.656,0,58.647,0,50,7.261,34.344,16.219,34.344ZM16.3,39.219A11.087,11.087,0,0,1,27.625,50.047,11.087,11.087,0,0,1,16.3,60.875,11.087,11.087,0,0,1,4.969,50.047,11.087,11.087,0,0,1,16.3,39.219ZM83.688,3C92.7,3,100,10.017,100,18.672S92.7,34.344,83.688,34.344,67.375,27.327,67.375,18.672,74.678,3,83.688,3Zm0.156,4.906A11.05,11.05,0,0,1,95.031,18.813a11.191,11.191,0,0,1-22.375,0A11.05,11.05,0,0,1,83.844,7.906Zm-2.734,57.75c8.983,0,16.266,7.016,16.266,15.672S90.093,97,81.109,97,64.844,89.984,64.844,81.328,72.126,65.656,81.109,65.656ZM81.2,70.563A10.818,10.818,0,1,1,70.031,81.375,11,11,0,0,1,81.2,70.563Z"/>
</svg>
