<svg xmlns="http://www.w3.org/2000/svg" width="28" height="39" viewBox="0 0 28 39">
  <metadata><?xpacket begin="﻿" id="W5M0MpCehiHzreSzNTczkc9d"?>
<x:xmpmeta xmlns:x="adobe:ns:meta/" x:xmptk="Adobe XMP Core 5.6-c138 79.159824, 2016/09/14-01:09:01        ">
   <rdf:RDF xmlns:rdf="http://www.w3.org/1999/02/22-rdf-syntax-ns#">
      <rdf:Description rdf:about=""/>
   </rdf:RDF>
</x:xmpmeta>
                                                                                                    
                                                                                                    
                                                                                                    
                                                                                                    
                                                                                                    
                                                                                                    
                                                                                                    
                                                                                                    
                                                                                                    
                                                                                                    
                                                                                                    
                                                                                                    
                                                                                                    
                                                                                                    
                                                                                                    
                                                                                                    
                                                                                                    
                                                                                                    
                                                                                                    
                                                                                                    
                           
<?xpacket end="w"?></metadata>
<defs>
    <style>
      .cls-1 {
        fill: #50bc54;
      }

      .cls-1, .cls-2 {
        fill-rule: evenodd;
      }

      .cls-2 {
        fill: #4fbb54;
      }
    </style>
  </defs>
  <path id="Shape_17_copy_3" data-name="Shape 17 copy 3" class="cls-1" d="M0,0H16S28,11.3,28,12V39H0V0ZM2,2c0-.119,22.026-0.039,15,0H16S26.043,12.384,26,12c-0.127-1.124.287,24.831,0,25,0.038-.037-24,0-24,0V2ZM14,2h2V13H14V2Zm2,11V11h9a3.512,3.512,0,0,1,1,1,1.207,1.207,0,0,1,0,1H16Z"/>
  <path id="XML" class="cls-2" d="M7.5,30.817l2.329-3.438h-0.8L7.1,30.217,5.174,27.379h-0.8L6.7,30.817,4.284,34.375H5.1l2-2.958,2,2.958h0.82Zm9.612-3.438h-0.73L14.076,32l-2.309-4.618h-0.73v7h0.74v-5.5l1.929,3.808h0.74l1.929-3.808v5.5h0.74v-7Zm1.77,7h4.368v-0.65H19.664V27.379h-0.78v7Z"/>
</svg>
