<svg xmlns="http://www.w3.org/2000/svg" width="100" height="100" viewBox="0 0 100 100">
  <metadata><?xpacket begin="﻿" id="W5M0MpCehiHzreSzNTczkc9d"?>
<x:xmpmeta xmlns:x="adobe:ns:meta/" x:xmptk="Adobe XMP Core 5.6-c138 79.159824, 2016/09/14-01:09:01        ">
   <rdf:RDF xmlns:rdf="http://www.w3.org/1999/02/22-rdf-syntax-ns#">
      <rdf:Description rdf:about=""/>
   </rdf:RDF>
</x:xmpmeta>
                                                                                                    
                                                                                                    
                                                                                                    
                                                                                                    
                                                                                                    
                                                                                                    
                                                                                                    
                                                                                                    
                                                                                                    
                                                                                                    
                                                                                                    
                                                                                                    
                                                                                                    
                                                                                                    
                                                                                                    
                                                                                                    
                                                                                                    
                                                                                                    
                                                                                                    
                                                                                                    
                           
<?xpacket end="w"?></metadata>
<defs>
    <style>
      .cls-1 {
        fill: #999;
        fill-rule: evenodd;
      }
    </style>
  </defs>
  <path id="All_files-icon-hover" data-name="All files-icon-hover" class="cls-1" d="M14,7h5V71H14V7Zm5,0V2H54V7H19ZM54,7V2L72,18l-4,3ZM68,21l4-3V52H68V21ZM-0.014,34.96L4,35V91c0.047-.254-3.938.343-4,0C-0.086,91.461-.014,34.96-0.014,34.96ZM6,33V28h8v5H6ZM5.545,97L6,93H77v4H5.545ZM83,92l-2-4L96,57l4,1ZM96,52v4H33V52H96ZM27,56l4,1L14.616,90.321,11.3,88.639ZM4,35H0a10.374,10.374,0,0,1,1.839-3.8A14.6,14.6,0,0,1,6,28s-0.069,5.069,0,5c0.134,0.134.372-.7-1,1C3.487,35.874,4,35,4,35ZM0,91H4l2,2L5.391,96.976A17.667,17.667,0,0,1,1,94,3.674,3.674,0,0,1,0,91Zm81-3,2,4a6.961,6.961,0,0,1-1.859,3.141A9.572,9.572,0,0,1,77,97V93ZM96,56V52a3.553,3.553,0,0,1,3,2,28.9,28.9,0,0,1,1,4l-4-1V56ZM31,57l-4-1a11.609,11.609,0,0,1,3-3,9.7,9.7,0,0,1,3-1v4ZM19,2V7H14a7.644,7.644,0,0,1,2-4A9.434,9.434,0,0,1,19,2Z"/>
</svg>
