<svg xmlns="http://www.w3.org/2000/svg" xmlns:xlink="http://www.w3.org/1999/xlink" width="100" height="100" viewBox="0 0 100 100">
  <metadata><?xpacket begin="﻿" id="W5M0MpCehiHzreSzNTczkc9d"?>
<x:xmpmeta xmlns:x="adobe:ns:meta/" x:xmptk="Adobe XMP Core 5.6-c138 79.159824, 2016/09/14-01:09:01        ">
   <rdf:RDF xmlns:rdf="http://www.w3.org/1999/02/22-rdf-syntax-ns#">
      <rdf:Description rdf:about=""/>
   </rdf:RDF>
</x:xmpmeta>
                                                                                                    
                                                                                                    
                                                                                                    
                                                                                                    
                                                                                                    
                                                                                                    
                                                                                                    
                                                                                                    
                                                                                                    
                                                                                                    
                                                                                                    
                                                                                                    
                                                                                                    
                                                                                                    
                                                                                                    
                                                                                                    
                                                                                                    
                                                                                                    
                                                                                                    
                                                                                                    
                           
<?xpacket end="w"?></metadata>
<defs>
    <style>
      .cls-1 {
        fill-rule: evenodd;
        fill: url(#linear-gradient);
      }
    </style>
    <linearGradient id="linear-gradient" x1="49.984" y1="100" x2="49.984" gradientUnits="userSpaceOnUse">
      <stop offset="0" stop-color="#55c55e"/>
      <stop offset="1" stop-color="#8cc63f"/>
    </linearGradient>
  </defs>
  <path id="By_you-icon" data-name="By you-icon" class="cls-1" d="M39.72,0C52.855,0,63.5,9.6,63.5,21.441S52.855,42.882,39.72,42.882s-23.784-9.6-23.784-21.441S26.584,0,39.72,0Zm0.044,3.472c11.235,0,20.343,8.006,20.343,17.882S51,39.236,39.763,39.236,19.421,31.23,19.421,21.354,28.528,3.472,39.763,3.472ZM30,41l6,2S19.924,48.348,12.639,59.826C9.884,64.167,7.472,70.55,7.554,75.21c0.1,5.8,5.085,10.256,5.085,10.256H9.249S4.936,82.05,4.164,76.919c-0.884-5.871,1.93-13.831,5.085-18.8C16.715,46.354,30,41,30,41ZM10,86l1-3H38l-1,3H10ZM57.964,48.526C58.488,48.379,62,47,62,47s4.708,5.395,6,8l-4,2A31.14,31.14,0,0,0,57.964,48.526ZM57,70l-1-3L78,57l1,3Zm-1,9,1-3,21,9-1,3ZM48.388,63.976A9.029,9.029,0,1,1,39.2,73,9.111,9.111,0,0,1,48.388,63.976Zm0.044,2.778A6.253,6.253,0,1,1,41.985,73,6.351,6.351,0,0,1,48.432,66.754Zm38.29-20.747a8.989,8.989,0,1,1-9.278,8.984A9.135,9.135,0,0,1,86.722,46.007Zm0.131,2.778a6.294,6.294,0,1,1-6.36,6.293A6.327,6.327,0,0,1,86.852,48.785ZM85.284,82.031a8.988,8.988,0,1,1-9.235,8.984A9.112,9.112,0,0,1,85.284,82.031Zm0.044,2.778a6.208,6.208,0,1,1-6.316,6.207A6.262,6.262,0,0,1,85.328,84.809Z"/>
</svg>
