<svg xmlns="http://www.w3.org/2000/svg" width="50" height="50" viewBox="0 0 50 50">
  <metadata><?xpacket begin="﻿" id="W5M0MpCehiHzreSzNTczkc9d"?>
<x:xmpmeta xmlns:x="adobe:ns:meta/" x:xmptk="Adobe XMP Core 5.6-c138 79.159824, 2016/09/14-01:09:01        ">
   <rdf:RDF xmlns:rdf="http://www.w3.org/1999/02/22-rdf-syntax-ns#">
      <rdf:Description rdf:about=""/>
   </rdf:RDF>
</x:xmpmeta>
                                                                                                    
                                                                                                    
                                                                                                    
                                                                                                    
                                                                                                    
                                                                                                    
                                                                                                    
                                                                                                    
                                                                                                    
                                                                                                    
                                                                                                    
                                                                                                    
                                                                                                    
                                                                                                    
                                                                                                    
                                                                                                    
                                                                                                    
                                                                                                    
                                                                                                    
                                                                                                    
                           
<?xpacket end="w"?></metadata>
<defs>
    <style>
      .cls-1 {
        fill: #47b8f7;
        fill-rule: evenodd;
      }
    </style>
  </defs>
  <path id="Calendar-icon" class="cls-1" d="M1,6.25L3.087,4.167,3,50,1,48V6.25ZM3.069,50V47.935L47,48v2H3.069ZM49,47.917s-0.437.511-1,1.083c-0.461.468-1.068,1.018-1.068,1.018L47,4l2,2.209V47.917ZM47,4V6H41V4h6ZM34,4V6H16V4H34ZM9,4V6l-5.93.236V4.172ZM9,2l2-2V10L9,8V2Zm2,8V8l2.991-.01v2.02Zm5-2-2,2V0l2,2V8ZM11,2V0h2.991V1.99ZM34,2l2-2h3V2H34Zm5-2,2,2V8l-2,2V0Zm0,8v2H36V8h3Zm-3,2L34,8V2h2v8ZM3,14V12H47v2H3Zm5,7h2v2H8V21Zm0,4V23h5v2H8Zm7,0H13V19h2v6Zm-2-6v2H8V19h5ZM8,29h2v2H8V29Zm0,4V31h5v2H8Zm7,0H13V27h2v6Zm-2-6v2H8V27h5ZM8,37h2v2H8V37Zm0,4V39h5v2H8Zm7,0H13V35h2v6Zm-2-6v2H8V35h5Zm4-14h2v2H17V21Zm0,4V23h5v2H17Zm7,0H22V19h2v6Zm-2-6v2H17V19h5ZM17,29h2v2H17V29Zm0,4V31h5v2H17Zm7,0H22V27h2v6Zm-2-6v2H17V27h5ZM17,37h2v2H17V37Zm0,4V39h5v2H17Zm7,0H22V35h2v6Zm-2-6v2H17V35h5Zm4-14h2v2H26V21Zm0,4V23h5v2H26Zm7,0H31V19h2v6Zm-2-6v2H26V19h5ZM26,29h2v2H26V29Zm0,4V31h5v2H26Zm7,0H31V27h2v6Zm-2-6v2H26V27h5ZM26,37h2v2H26V37Zm0,4V39h5v2H26Zm7,0H31V35h2v6Zm-2-6v2H26V35h5Zm4-14h2v2H35V21Zm0,4V23h5v2H35Zm7,0H40V19h2v6Zm-2-6v2H35V19h5ZM35,29h2v2H35V29Zm0,4V31h5v2H35Zm7,0H40V27h2v6Zm-2-6v2H35V27h5ZM35,37h2v2H35V37Zm0,4V39h5v2H35Zm7,0H40V35h2v6Zm-2-6v2H35V35h5Z"/>
</svg>
