<svg xmlns="http://www.w3.org/2000/svg" xmlns:xlink="http://www.w3.org/1999/xlink" width="100" height="100" viewBox="0 0 100 100">
  <metadata><?xpacket begin="﻿" id="W5M0MpCehiHzreSzNTczkc9d"?>
<x:xmpmeta xmlns:x="adobe:ns:meta/" x:xmptk="Adobe XMP Core 5.6-c138 79.159824, 2016/09/14-01:09:01        ">
   <rdf:RDF xmlns:rdf="http://www.w3.org/1999/02/22-rdf-syntax-ns#">
      <rdf:Description rdf:about=""/>
   </rdf:RDF>
</x:xmpmeta>
                                                                                                    
                                                                                                    
                                                                                                    
                                                                                                    
                                                                                                    
                                                                                                    
                                                                                                    
                                                                                                    
                                                                                                    
                                                                                                    
                                                                                                    
                                                                                                    
                                                                                                    
                                                                                                    
                                                                                                    
                                                                                                    
                                                                                                    
                                                                                                    
                                                                                                    
                                                                                                    
                           
<?xpacket end="w"?></metadata>
<defs>
    <style>
      .cls-1 {
        fill-rule: evenodd;
        fill: url(#linear-gradient);
      }
    </style>
    <linearGradient id="linear-gradient" x1="50.484" y1="100" x2="50.484" gradientUnits="userSpaceOnUse">
      <stop offset="0" stop-color="#44b749"/>
      <stop offset="1" stop-color="#ffba00"/>
    </linearGradient>
  </defs>
  <path id="Copy-icon" class="cls-1" d="M68.731,3.03l2.2-.328V13.513H68.207ZM68.188,0L71.769,3.03H14.038V0h54.15Zm-57.2,1.978L14.038,0V78.788H11Zm2.741,79.1L11,78.378H27.345v2.7H13.724ZM21.9,13.513v-2.7H60.035l-2.724,2.7H21.9Zm0,18.919v-2.7h2.724v2.7H21.9Zm0,13.514v-2.7h2.724v2.7H21.9Zm0,16.216v-2.7h2.724v2.7H21.9Zm65.065-43.98L90,21.212V96.97L86.962,100V18.182Zm0.314,0.737-0.314,2.293-56.892.409,2.724-2.7H87.276Zm-57.207,2.7,2.2-.409V96.97l-2.2.328V21.622ZM32.269,100l-2.2-2.7,56.893-.328V100H32.269Zm8.7-64.865v-2.7H79.1v2.7H40.966Zm0,16.216v-2.7H79.1v2.7H40.966Zm0,13.514v-2.7H79.1v2.7H40.966Zm0,16.216v-2.7H79.1v2.7H40.966Z"/>
</svg>
