<svg xmlns="http://www.w3.org/2000/svg" xmlns:xlink="http://www.w3.org/1999/xlink" width="100" height="100" viewBox="0 0 100 100">
  <metadata><?xpacket begin="﻿" id="W5M0MpCehiHzreSzNTczkc9d"?>
<x:xmpmeta xmlns:x="adobe:ns:meta/" x:xmptk="Adobe XMP Core 5.6-c138 79.159824, 2016/09/14-01:09:01        ">
   <rdf:RDF xmlns:rdf="http://www.w3.org/1999/02/22-rdf-syntax-ns#">
      <rdf:Description rdf:about=""/>
   </rdf:RDF>
</x:xmpmeta>
                                                                                                    
                                                                                                    
                                                                                                    
                                                                                                    
                                                                                                    
                                                                                                    
                                                                                                    
                                                                                                    
                                                                                                    
                                                                                                    
                                                                                                    
                                                                                                    
                                                                                                    
                                                                                                    
                                                                                                    
                                                                                                    
                                                                                                    
                                                                                                    
                                                                                                    
                                                                                                    
                           
<?xpacket end="w"?></metadata>
<defs>
    <style>
      .cls-1 {
        fill-rule: evenodd;
        fill: url(#linear-gradient);
      }
    </style>
    <linearGradient id="linear-gradient" x1="49.484" y1="100" x2="49.484" gradientUnits="userSpaceOnUse">
      <stop offset="0" stop-color="#52c660"/>
      <stop offset="1" stop-color="#fdba01"/>
    </linearGradient>
  </defs>
  <path id="Favorites-icon_copy" data-name="Favorites-icon copy" class="cls-1" d="M23,4L22.912,0H76V4H23ZM76.052,0L80,4v96H76.052V0ZM23,100H18.976V4L23,0V100Zm0,0V94L47,69l3,3ZM47,69l3-3L76,94v6ZM64.226,54.1L49.909,43.763l-14.058,10.7L41.1,37.43,26.745,27.15l17.561-.189L49.492,9.909l5.6,16.914,17.56-.258-14.1,10.643Zm-6.634-8.324L49.6,39.747l-7.848,6.239,2.931-9.933-8.015-6,9.8-.111L49.366,20l3.129,9.865,9.8-.15-7.871,6.207Z"/>
</svg>
