<svg xmlns="http://www.w3.org/2000/svg" xmlns:xlink="http://www.w3.org/1999/xlink" width="100" height="100" viewBox="0 0 100 100">
  <metadata><?xpacket begin="﻿" id="W5M0MpCehiHzreSzNTczkc9d"?>
<x:xmpmeta xmlns:x="adobe:ns:meta/" x:xmptk="Adobe XMP Core 5.6-c138 79.159824, 2016/09/14-01:09:01        ">
   <rdf:RDF xmlns:rdf="http://www.w3.org/1999/02/22-rdf-syntax-ns#">
      <rdf:Description rdf:about=""/>
   </rdf:RDF>
</x:xmpmeta>
                                                                                                    
                                                                                                    
                                                                                                    
                                                                                                    
                                                                                                    
                                                                                                    
                                                                                                    
                                                                                                    
                                                                                                    
                                                                                                    
                                                                                                    
                                                                                                    
                                                                                                    
                                                                                                    
                                                                                                    
                                                                                                    
                                                                                                    
                                                                                                    
                                                                                                    
                                                                                                    
                           
<?xpacket end="w"?></metadata>
<defs>
    <style>
      .cls-1 {
        fill-rule: evenodd;
        fill: url(#linear-gradient);
      }
    </style>
    <linearGradient id="linear-gradient" x1="50" y1="89" x2="50" y2="18.969" gradientUnits="userSpaceOnUse">
      <stop offset="0" stop-color="#52c660"/>
      <stop offset="1" stop-color="#8ecd53"/>
    </linearGradient>
  </defs>
  <path id="Files-icon" class="cls-1" d="M0,25.914L4,26V83H0V25.914ZM6,23l0.2-4.016L45,19v4H6ZM6,89V85H78v4H6Zm77-5-3-2L96,49l4,1ZM96,43v4H35l-1-4H96ZM27.992,46.084L31,49,14.629,82.2l-3.315-1.709ZM4,26H0a10.837,10.837,0,0,1,1.853-3.909A12.682,12.682,0,0,1,5.93,19.033L6,24s0.9-1.848-.441,0A12.539,12.539,0,0,1,4,26ZM0,83H4l2,2v4c-0.056.036-3.449-.086-4.591-1.715A9.494,9.494,0,0,1,0,83Zm80-1,3,2-5,5V85ZM96,47V43a9.057,9.057,0,0,1,3,3,10.652,10.652,0,0,1,1,4l-4-1V47ZM31,49l-3-3a17.49,17.49,0,0,1,3-2,12.663,12.663,0,0,1,3-1l1,4ZM45,36V32H86a8.534,8.534,0,0,1,2.46,1.258A4.976,4.976,0,0,1,90,36H45Zm41,0h4v7H86V36ZM44.9,19.007l4.082,2.121L49,32H45Z"/>
</svg>
