<svg xmlns="http://www.w3.org/2000/svg" width="100" height="100" viewBox="0 0 100 100">
  <metadata><?xpacket begin="﻿" id="W5M0MpCehiHzreSzNTczkc9d"?>
<x:xmpmeta xmlns:x="adobe:ns:meta/" x:xmptk="Adobe XMP Core 5.6-c138 79.159824, 2016/09/14-01:09:01        ">
   <rdf:RDF xmlns:rdf="http://www.w3.org/1999/02/22-rdf-syntax-ns#">
      <rdf:Description rdf:about=""/>
   </rdf:RDF>
</x:xmpmeta>
                                                                                                    
                                                                                                    
                                                                                                    
                                                                                                    
                                                                                                    
                                                                                                    
                                                                                                    
                                                                                                    
                                                                                                    
                                                                                                    
                                                                                                    
                                                                                                    
                                                                                                    
                                                                                                    
                                                                                                    
                                                                                                    
                                                                                                    
                                                                                                    
                                                                                                    
                                                                                                    
                           
<?xpacket end="w"?></metadata>
<defs>
    <style>
      .cls-1 {
        fill: #ffba00;
        fill-rule: evenodd;
      }
    </style>
  </defs>
  <path id="FolderAdd-icon" class="cls-1" d="M0,18H5V85H0V18Zm7-3V10H52a5.452,5.452,0,0,1,4,2,15.26,15.26,0,0,1,1.1,2.969ZM7,92V87H91v5H7ZM91,38v5H7V38H91ZM5,18H0a12.789,12.789,0,0,1,2.159-4.387C3.623,11.589,7,10,7,10v5a2.378,2.378,0,0,1-.52.852C5.949,16.543,5,18,5,18ZM0,85H5l2,2v5a16.178,16.178,0,0,1-5-3A8,8,0,0,1,0,85Zm95,0h5a21.788,21.788,0,0,1-4,5c-1.4,1.222-5,2-5,2V87ZM91,43V38a3.531,3.531,0,0,1,3,2,21.039,21.039,0,0,1,1,3v6ZM5,45V40l2-2v5ZM57,32V27H95c0.23-.143,4.785,2.643,4.731,4.559A0.459,0.459,0,0,0,100,32H57Zm38,0h5V85H95V32ZM52,15h5V32a10.434,10.434,0,0,1-2-1c-2.3-2.105-3.539-3.181-3-4V15ZM44,49h7V80H44V49ZM31,68V61H44v7H31Zm20,0V61H64v7H51Z"/>
</svg>
