<svg xmlns="http://www.w3.org/2000/svg" width="100" height="100" viewBox="0 0 100 100">
  <metadata><?xpacket begin="﻿" id="W5M0MpCehiHzreSzNTczkc9d"?>
<x:xmpmeta xmlns:x="adobe:ns:meta/" x:xmptk="Adobe XMP Core 5.6-c138 79.159824, 2016/09/14-01:09:01        ">
   <rdf:RDF xmlns:rdf="http://www.w3.org/1999/02/22-rdf-syntax-ns#">
      <rdf:Description rdf:about=""/>
   </rdf:RDF>
</x:xmpmeta>
                                                                                                    
                                                                                                    
                                                                                                    
                                                                                                    
                                                                                                    
                                                                                                    
                                                                                                    
                                                                                                    
                                                                                                    
                                                                                                    
                                                                                                    
                                                                                                    
                                                                                                    
                                                                                                    
                                                                                                    
                                                                                                    
                                                                                                    
                                                                                                    
                                                                                                    
                                                                                                    
                           
<?xpacket end="w"?></metadata>
<defs>
    <style>
      .cls-1 {
        fill: #999;
        fill-rule: evenodd;
      }
    </style>
  </defs>
  <path class="cls-1" d="M22,54V45S0.149,61.62,1,74c0.432,6.292,2.379,15.812,8,20,7.419,5.526,19.185,4.7,22,4,4.973-1.243,30.024-20.22,36-37,4.658-13.079-9-25-9-25l-4,6s9.33,6.03,7,15c-1.54,11.759-33.756,48.334-49,30C-2.2,69.921,22,54,22,54Zm56.454-8.938-0.111,9S100.4,37.712,99.7,25.322c-0.355-6.3-2.184-15.841-7.753-20.1C84.6-.392,72.82.286,70,0.955,65.009,2.137,39.726,20.8,33.544,37.509c-4.818,13.021,8.692,25.109,8.692,25.109l4.073-5.95s-9.255-6.144-6.815-15.085C41.178,29.843,73.842-6.333,88.859,12.188,102.848,29.44,78.454,45.062,78.454,45.062Z"/>
</svg>
