<svg xmlns="http://www.w3.org/2000/svg" xmlns:xlink="http://www.w3.org/1999/xlink" width="100" height="100" viewBox="0 0 100 100">
  <metadata><?xpacket begin="﻿" id="W5M0MpCehiHzreSzNTczkc9d"?>
<x:xmpmeta xmlns:x="adobe:ns:meta/" x:xmptk="Adobe XMP Core 5.6-c138 79.159824, 2016/09/14-01:09:01        ">
   <rdf:RDF xmlns:rdf="http://www.w3.org/1999/02/22-rdf-syntax-ns#">
      <rdf:Description rdf:about=""/>
   </rdf:RDF>
</x:xmpmeta>
                                                                                                    
                                                                                                    
                                                                                                    
                                                                                                    
                                                                                                    
                                                                                                    
                                                                                                    
                                                                                                    
                                                                                                    
                                                                                                    
                                                                                                    
                                                                                                    
                                                                                                    
                                                                                                    
                                                                                                    
                                                                                                    
                                                                                                    
                                                                                                    
                                                                                                    
                                                                                                    
                           
<?xpacket end="w"?></metadata>
<defs>
    <style>
      .cls-1 {
        fill-rule: evenodd;
        fill: url(#linear-gradient);
      }
    </style>
    <linearGradient id="linear-gradient" x1="50.047" y1="82" x2="50.047" y2="23" gradientUnits="userSpaceOnUse">
      <stop offset="0" stop-color="#44b749"/>
      <stop offset="1" stop-color="#8cc63f"/>
    </linearGradient>
  </defs>
  <path id="Ok-icon" class="cls-1" d="M14,82V79H79l2,3H14Zm0-3s0,3.189,0,3c0.06-1.123-7.758,2.472-13.015-7.545-2.92-5.565,1.961-15.507,1.961-15.507l2.773,2.826S1.688,69.8,4.032,74.455C6.955,80.262,14,79,14,79Zm75,0-3,3H81l-2-3H89ZM27.9,39.163L25.13,36.337s7.651-13.88,24.6-13.328c16.159,0.526,25.311,13.328,25.311,13.328L72.27,39.163S62.351,25.911,49.733,26.035C34.28,26.187,27.9,39.163,27.9,39.163ZM5.719,61.774L2.946,58.948S3.057,48.188,8.6,42.679c6.556-6.512,16.528-6.342,16.528-6.342L27.9,39.163s-10.16-1.023-16.254,5.029S5.719,61.774,5.719,61.774ZM72.27,39.163l2.773-2.826a36.52,36.52,0,0,1,9.727,6.342c4.494,4.464,4.138,7.789,4.138,7.789l-2.773,2.826a11.466,11.466,0,0,0-4.412-9.1A31.621,31.621,0,0,0,72.27,39.163ZM86.135,53.295l2.773-2.826c0.037,0,11.813,7.965,11.1,17.934C99.151,80.254,86,82,86,82l3-3a12.1,12.1,0,0,0,7.957-10.6C97.644,61.585,86.135,53.295,86.135,53.295Zm-75,4.133L9.114,55.166S10,50.022,13.172,47.219c3.647-3.22,9.652-4.157,9.652-4.157l2.024,2.262s-5.213.393-8.629,3.408C12.78,51.768,11.138,57.428,11.138,57.428ZM36.222,55.56l2.773-2.779L47.314,63.9v8.335ZM47.314,72.231V63.9L58.405,41.668,63.97,42.55Z"/>
</svg>
