<svg xmlns="http://www.w3.org/2000/svg" width="50" height="50" viewBox="0 0 50 50">
  <metadata><?xpacket begin="﻿" id="W5M0MpCehiHzreSzNTczkc9d"?>
<x:xmpmeta xmlns:x="adobe:ns:meta/" x:xmptk="Adobe XMP Core 5.6-c138 79.159824, 2016/09/14-01:09:01        ">
   <rdf:RDF xmlns:rdf="http://www.w3.org/1999/02/22-rdf-syntax-ns#">
      <rdf:Description rdf:about=""/>
   </rdf:RDF>
</x:xmpmeta>
                                                                                                    
                                                                                                    
                                                                                                    
                                                                                                    
                                                                                                    
                                                                                                    
                                                                                                    
                                                                                                    
                                                                                                    
                                                                                                    
                                                                                                    
                                                                                                    
                                                                                                    
                                                                                                    
                                                                                                    
                                                                                                    
                                                                                                    
                                                                                                    
                                                                                                    
                                                                                                    
                           
<?xpacket end="w"?></metadata>
<defs>
    <style>
      .cls-1 {
        fill: #ffba00;
        fill-rule: evenodd;
      }
    </style>
  </defs>
  <path id="Shared-icon" class="cls-1" d="M16,23l-1-2,19-8,1,2Zm-1,7,1-2,18,8-1,2ZM8.943,18.021A7.721,7.721,0,0,1,16.887,25.5a7.721,7.721,0,0,1-7.943,7.479A7.722,7.722,0,0,1,1,25.5,7.722,7.722,0,0,1,8.943,18.021Zm0.032,2.3A5.374,5.374,0,0,1,14.526,25.5a5.374,5.374,0,0,1-5.551,5.178A5.374,5.374,0,0,1,3.424,25.5,5.374,5.374,0,0,1,8.975,20.322ZM42.025,3A7.753,7.753,0,0,1,50,10.511a7.753,7.753,0,0,1-7.975,7.511,7.753,7.753,0,0,1-7.975-7.511A7.753,7.753,0,0,1,42.025,3Zm0.064,2.365a5.354,5.354,0,0,1,5.487,5.21,5.494,5.494,0,0,1-10.974,0A5.354,5.354,0,0,1,42.089,5.365Zm-1.34,27.614a7.753,7.753,0,0,1,7.975,7.511A7.753,7.753,0,0,1,40.749,48a7.753,7.753,0,0,1-7.975-7.511A7.753,7.753,0,0,1,40.749,32.979Zm0.064,2.365a5.186,5.186,0,1,1-5.487,5.177A5.339,5.339,0,0,1,40.813,35.344Z"/>
</svg>
