<svg xmlns="http://www.w3.org/2000/svg" xmlns:xlink="http://www.w3.org/1999/xlink" width="100" height="100" viewBox="0 0 100 100">
  <metadata><?xpacket begin="﻿" id="W5M0MpCehiHzreSzNTczkc9d"?>
<x:xmpmeta xmlns:x="adobe:ns:meta/" x:xmptk="Adobe XMP Core 5.6-c138 79.159824, 2016/09/14-01:09:01        ">
   <rdf:RDF xmlns:rdf="http://www.w3.org/1999/02/22-rdf-syntax-ns#">
      <rdf:Description rdf:about=""/>
   </rdf:RDF>
</x:xmpmeta>
                                                                                                    
                                                                                                    
                                                                                                    
                                                                                                    
                                                                                                    
                                                                                                    
                                                                                                    
                                                                                                    
                                                                                                    
                                                                                                    
                                                                                                    
                                                                                                    
                                                                                                    
                                                                                                    
                                                                                                    
                                                                                                    
                                                                                                    
                                                                                                    
                                                                                                    
                                                                                                    
                           
<?xpacket end="w"?></metadata>
<defs>
    <style>
      .cls-1 {
        fill-rule: evenodd;
        fill: url(#linear-gradient);
      }
    </style>
    <linearGradient id="linear-gradient" x1="50" y1="82" x2="50" y2="7" gradientUnits="userSpaceOnUse">
      <stop offset="0" stop-color="#51c660"/>
      <stop offset="1" stop-color="#ffba00"/>
    </linearGradient>
  </defs>
  <path class="cls-1" d="M32.989,50l-2-3L54,37l1,3Zm-2,10,2-3L55,66l-2,3ZM23.953,44.219a9.469,9.469,0,1,1-9.443,9.469A9.456,9.456,0,0,1,23.953,44.219Zm-0.031,2.969a6.5,6.5,0,1,1-6.535,6.5A6.518,6.518,0,0,1,23.921,47.188Zm39.15-21.812A9.422,9.422,0,1,1,53.627,34.8,9.433,9.433,0,0,1,63.071,25.375ZM63.1,28.25A6.547,6.547,0,1,1,56.567,34.8,6.541,6.541,0,0,1,63.1,28.25Zm-1.47,34.906a9.422,9.422,0,1,1-9.443,9.422A9.433,9.433,0,0,1,61.632,63.156Zm0.016,2.875a6.547,6.547,0,1,1-6.488,6.547A6.518,6.518,0,0,1,61.648,66.031ZM14.978,68V65l1.064,0.163,3.052,3.061Zm0-3v3S6.034,69.39.78,59.041C-2.093,53.384,3.971,44,3.971,44l3,2s-5.49,8.33-3.141,13.041C6.761,64.915,14.978,65,14.978,65Zm71.044,0,1,3H78.018l-2.453-2.837ZM28.987,23l-2-2S32.634,6.441,49.618,7c16.189,0.533,24.4,15,24.4,15l-2,2s-9.757-13.637-22.4-13.939C34.869,9.709,28.987,23,28.987,23ZM6.973,46c0.067,0.057-3-2-3-2S2.855,32.47,8.411,26.9C14.979,20.31,26.986,21,26.986,21l2,2s-11.409-.683-17.524,5.429S6.914,45.95,6.973,46ZM72.014,24l2-2s6.868,1.049,10.706,4.9c4.5,4.516,5.3,11.1,5.3,11.1l-2,2c0.085-.107-1.759-7.978-6.355-11.571A22.8,22.8,0,0,0,72.014,24Zm16.01,16,2-2c0.037,0,10.678,4.835,9.959,14.918C99.129,64.907,87.023,68,87.023,68l-1-3s10.05-3.472,10.909-12.082C97.619,46.023,88.024,40,88.024,40ZM10.951,41.818L8.923,39.53s0.885-5.2,4.066-8.04c3.654-3.257,9.67-4.205,9.67-4.205l2.028,2.288s-5.223.4-8.645,3.448C12.6,36.092,10.951,41.818,10.951,41.818Z"/>
</svg>
