<svg xmlns="http://www.w3.org/2000/svg" xmlns:xlink="http://www.w3.org/1999/xlink" width="100" height="100" viewBox="0 0 100 100">
  <metadata><?xpacket begin="﻿" id="W5M0MpCehiHzreSzNTczkc9d"?>
<x:xmpmeta xmlns:x="adobe:ns:meta/" x:xmptk="Adobe XMP Core 5.6-c138 79.159824, 2016/09/14-01:09:01        ">
   <rdf:RDF xmlns:rdf="http://www.w3.org/1999/02/22-rdf-syntax-ns#">
      <rdf:Description rdf:about=""/>
   </rdf:RDF>
</x:xmpmeta>
                                                                                                    
                                                                                                    
                                                                                                    
                                                                                                    
                                                                                                    
                                                                                                    
                                                                                                    
                                                                                                    
                                                                                                    
                                                                                                    
                                                                                                    
                                                                                                    
                                                                                                    
                                                                                                    
                                                                                                    
                                                                                                    
                                                                                                    
                                                                                                    
                                                                                                    
                                                                                                    
                           
<?xpacket end="w"?></metadata>
<defs>
    <style>
      .cls-1 {
        fill-rule: evenodd;
        fill: url(#linear-gradient);
      }
    </style>
    <linearGradient id="linear-gradient" x1="49.531" y1="99" x2="49.531" y2="1" gradientUnits="userSpaceOnUse">
      <stop offset="0" stop-color="#51c660"/>
      <stop offset="1" stop-color="#8ecd53"/>
    </linearGradient>
  </defs>
  <path id="Tags-icon" class="cls-1" d="M1,64.075A6.165,6.165,0,0,1,0,61a7.429,7.429,0,0,1,1-3.16L38.24,96.06,35.3,99Zm40.571,34.9-2.905.011L35.3,99,95.08,39.22,99,42.16ZM3.94,60.78L1,57.84,58.82,1l1.96,3.92ZM60.78,4.92L58.82,1H95.046L95.08,4.92H60.78ZM95.046,1a4.625,4.625,0,0,1,2.994.96l0.125,0.126a4.506,4.506,0,0,1,.8,2.856V42.393L95.08,39.22ZM76.46,11.78A11.76,11.76,0,1,1,64.7,23.54,11.76,11.76,0,0,1,76.46,11.78Zm0,3.92a7.84,7.84,0,1,1-7.84,7.84A7.84,7.84,0,0,1,76.46,15.7Z"/>
</svg>
