<svg xmlns="http://www.w3.org/2000/svg" width="100" height="100" viewBox="0 0 100 100">
  <metadata><?xpacket begin="﻿" id="W5M0MpCehiHzreSzNTczkc9d"?>
<x:xmpmeta xmlns:x="adobe:ns:meta/" x:xmptk="Adobe XMP Core 5.6-c138 79.159824, 2016/09/14-01:09:01        ">
   <rdf:RDF xmlns:rdf="http://www.w3.org/1999/02/22-rdf-syntax-ns#">
      <rdf:Description rdf:about=""/>
   </rdf:RDF>
</x:xmpmeta>
                                                                                                    
                                                                                                    
                                                                                                    
                                                                                                    
                                                                                                    
                                                                                                    
                                                                                                    
                                                                                                    
                                                                                                    
                                                                                                    
                                                                                                    
                                                                                                    
                                                                                                    
                                                                                                    
                                                                                                    
                                                                                                    
                                                                                                    
                                                                                                    
                                                                                                    
                                                                                                    
                           
<?xpacket end="w"?></metadata>
<defs>
    <style>
      .cls-1 {
        fill: #666;
        fill-rule: evenodd;
      }
    </style>
  </defs>
  <path id="Shared-icon" class="cls-1" d="M32,45l-2-4L68,23l2,4ZM29,60l2-4L68,71l-2,4ZM16.211,34.333A15.946,15.946,0,0,1,32.422,50,15.946,15.946,0,0,1,16.211,65.667,15.946,15.946,0,0,1,0,50,15.946,15.946,0,0,1,16.211,34.333Zm0.1,4.9a11.083,11.083,0,0,1,11.328,10.82,11.083,11.083,0,0,1-11.328,10.82A11.083,11.083,0,0,1,4.98,50.049,11.083,11.083,0,0,1,16.309,39.229ZM83.691,3C92.7,3,100,10.014,100,18.667S92.7,34.333,83.691,34.333,67.383,27.319,67.383,18.667,74.684,3,83.691,3Zm0.147,4.9A11.052,11.052,0,0,1,95.02,18.814a11.185,11.185,0,0,1-22.363,0A11.052,11.052,0,0,1,83.838,7.9ZM70.988,68.213l4.21-4.207L99.012,87.8,94.8,92.012ZM85,82.471l-4.465-4.462-9.547,9.8,4.21,4.207ZM99.015,68.705L94.55,64.289,85,73.984l4.21,4.164Z"/>
</svg>
