<svg xmlns="http://www.w3.org/2000/svg" width="100" height="100" viewBox="0 0 100 100">
  <metadata><?xpacket begin="﻿" id="W5M0MpCehiHzreSzNTczkc9d"?>
<x:xmpmeta xmlns:x="adobe:ns:meta/" x:xmptk="Adobe XMP Core 5.6-c138 79.159824, 2016/09/14-01:09:01        ">
   <rdf:RDF xmlns:rdf="http://www.w3.org/1999/02/22-rdf-syntax-ns#">
      <rdf:Description rdf:about=""/>
   </rdf:RDF>
</x:xmpmeta>
                                                                                                    
                                                                                                    
                                                                                                    
                                                                                                    
                                                                                                    
                                                                                                    
                                                                                                    
                                                                                                    
                                                                                                    
                                                                                                    
                                                                                                    
                                                                                                    
                                                                                                    
                                                                                                    
                                                                                                    
                                                                                                    
                                                                                                    
                                                                                                    
                                                                                                    
                                                                                                    
                           
<?xpacket end="w"?></metadata>
<defs>
    <style>
      .cls-1 {
        fill: #52bcf7;
        fill-rule: evenodd;
      }
    </style>
  </defs>
  <path id="Uploat-icon" class="cls-1" d="M13.889,79.25L14,76H28l-0.222,3.25H13.889ZM14,76s-0.24,3.079,0,3c0.234,0.234-7.936.829-13.138-9.895-2.814-5.8,2.522-14.9,2.522-14.9l3.332,1.737s-5.15,8.352-2.8,13.158C6.84,75.1,14,76,14,76Zm75,0v3H75V76H89ZM30.036,33.368l-3.242-3.311S32.7,15.429,49.677,16c16.181,0.543,23.671,13.9,23.671,13.9l-1.666,3.474s-9.387-13.547-22-14.245C34.125,18.264,30.036,33.368,30.036,33.368ZM6.715,55.947c0.024,0.025-3.163-1.734-3.332-1.737,0,0-.447-12.22,5.106-17.906,6.565-6.722,18.215-6.41,18.215-6.41s3.121,3.474,3.332,3.474c-0.239.046-12.372-1.67-18.5,4.5C5.391,44.06,6.307,55.933,6.715,55.947ZM71.681,33.368l1.666-3.474s7.579,2.482,11.415,6.41a20.9,20.9,0,0,1,5.243,10.958l-1.666,3.474c0.084-.109-2.035-9.2-6.628-12.87A22.789,22.789,0,0,0,71.681,33.368ZM88.339,50.737l1.666-3.474c0.037,0,10.522,5.293,10.012,15.595C99.369,75.937,90.545,79.9,89,79V76a18.457,18.457,0,0,0,7.966-13.142C97.653,55.821,88.339,50.737,88.339,50.737Zm-77.311.793L9,49.195s0.884-5.31,4.064-8.2C16.717,37.667,22.73,36.7,22.73,36.7l2.027,2.335s-5.221.405-8.641,3.518C12.673,45.687,11.028,51.53,11.028,51.53ZM72.222,60l-22.2-17.947L27.778,60h8.333V82H63.889V60h8.333ZM66,58L50,46,35,58h4L38.889,79.25H61.111L61,58h5Z"/>
</svg>
